{
    "angel" :{
        "aliases": ["pursuit"],
        "description": "**Pursuit** & **Angel**.",
        "content": "**Top 10 reasons you don't get Pursuit as Angel:** ☝\n\n\t1. Simplify.\n\t2. Immobility.\n\t3. Immobile enemies.\n\t4. Power draining enemies.\n\t5. Zone room.\n\t6. Fire room or Balrog.\n\t7. Dojo room.\n\t8. Bleed 100%.\n\t9. You lose Divine Mission, Wavy Attack or Vampire because of Dispel or Illusion.\n\t10. Not having any way to start the damage.\n\n_- Courtesey of **Digimon666** 🤘_"
    },

    "transformation" :{
        "aliases": ["transform", "emerging dream", "emerging", "dream"],
        "description": "**Transformation** & **Emerging Dream**.",
        "content": "**Top 7 reasons you don't get Transformation with Emerging Dream:** ☝\n\n\t1. You are not using Pupa.\n\t2. Immobility or Simplify.\n\t3. Zone room.\n\t4. Power draining enemies.\n\t5. You are not hit by enemies.\n\t6. You clear your status by Clear Potion or Voice of God.\n\t7. The buff duration has run out.\n\n_- Courtesey of **Digimon666** 🤘_"
    },

    "promotion": {
        "aliases": ["promote", "prom"],
        "description": "About the **Promotion** Effect.",
        "content": "**Promotion** is a _Legendary Effect_ that gives you a chance to promote non-Legendary, non-level based effects to permanent effects when you level up."
    },

    "stadistics": {
        "aliases": ["stad", "stadistix"],
        "description": "Etymology of the meme/term.",
        "content": "**Stadistics** is a term for _sadistic statistics_. It happens when you give ES translators permissions to mangle EN translation files. 😹🤡\n\nReference `git commit`: http://3.112.251.46/translate/b2rpg/origin/en/?checksum=454c1c9f512fcd41"
    },

    "syntax": {
        "aliases": ["syn"],
        "description": "Coding syntax for **library.json**, contributions to reference library.",
        "content": "**syntax:**\n```//TODO.```"
    }
}